%YAML 1.1
%TAG !u! tag:unity3d.com,2011:
--- !u!114 &11400000
MonoBehaviour:
  m_ObjectHideFlags: 0
  m_CorrespondingSourceObject: {fileID: 0}
  m_PrefabInstance: {fileID: 0}
  m_PrefabAsset: {fileID: 0}
  m_GameObject: {fileID: 0}
  m_Enabled: 1
  m_EditorHideFlags: 0
  m_Script: {fileID: 11500000, guid: 50219aab48703d54dbf38a4f9322a461, type: 3}
  m_Name: LeakElectricity
  m_EditorClassIdentifier: 
  beatFull: 1
  beatD8: 0
  isBeatFull: 0
  isBeatD8: 0
  checkBeatList: []
