%YAML 1.1
%TAG !u! tag:unity3d.com,2011:
--- !u!74 &7400000
AnimationClip:
  m_ObjectHideFlags: 0
  m_CorrespondingSourceObject: {fileID: 0}
  m_PrefabInstance: {fileID: 0}
  m_PrefabAsset: {fileID: 0}
  m_Name: PlatformShrink
  serializedVersion: 6
  m_Legacy: 0
  m_Compressed: 0
  m_UseHighQualityCurve: 1
  m_RotationCurves: []
  m_CompressedRotationCurves: []
  m_EulerCurves: []
  m_PositionCurves: []
  m_ScaleCurves: []
  m_FloatCurves:
  - curve:
      serializedVersion: 2
      m_Curve:
      - serializedVersion: 3
        time: 0
        value: 1
        inSlope: Infinity
        outSlope: Infinity
        tangentMode: 103
        weightedMode: 0
        inWeight: 0
        outWeight: 0
      - serializedVersion: 3
        time: 0.95
        value: 0
        inSlope: Infinity
        outSlope: Infinity
        tangentMode: 103
        weightedMode: 0
        inWeight: 0
        outWeight: 0
      m_PreInfinity: 2
      m_PostInfinity: 2
      m_RotationOrder: 4
    attribute: m_Enabled
    path: 
    classID: 61
    script: {fileID: 0}
  m_PPtrCurves:
  - curve:
    - time: 0
      value: {fileID: 21300000, guid: 21a00020982a7004e9674b02a3ad6da3, type: 3}
    - time: 0.083333336
      value: {fileID: 21300000, guid: 14ebe83070dc3d04fb3b7ca9f89019e2, type: 3}
    - time: 0.2
      value: {fileID: 21300000, guid: ff36ff79a4e4d5b43a168c9220833a57, type: 3}
    - time: 0.26666668
      value: {fileID: 21300000, guid: 0c3eced6c6632404cb2172049a31c9e5, type: 3}
    - time: 0.36666667
      value: {fileID: 21300000, guid: 2872c360b51f2a54d82723aaad92fbae, type: 3}
    - time: 0.45
      value: {fileID: 21300000, guid: cc13a40f664730f4ea1b108f0e1fab75, type: 3}
    - time: 0.55
      value: {fileID: 21300000, guid: b81f76f43a5398c47ac05712faaa0161, type: 3}
    - time: 0.6333333
      value: {fileID: 21300000, guid: f0f220574f2f76e418b191584ef18d96, type: 3}
    - time: 0.75
      value: {fileID: 21300000, guid: bc27698e8d52ae647988a48e2295540e, type: 3}
    - time: 0.81666666
      value: {fileID: 21300000, guid: 927d58306d4b54942abf68c7124023c0, type: 3}
    - time: 0.8666667
      value: {fileID: 21300000, guid: 4dd34cc4c4a803f4994629c3aa71fd15, type: 3}
    - time: 0.9
      value: {fileID: 21300000, guid: c1a3fa562e5a5db428e2c5f28d61eaed, type: 3}
    - time: 0.9166667
      value: {fileID: 21300000, guid: fb97256e05c0bf84dba5cc6d8ea3c460, type: 3}
    - time: 0.95
      value: {fileID: 21300000, guid: 470337c307f956b4598240b1181675ee, type: 3}
    - time: 0.98333335
      value: {fileID: 21300000, guid: 470337c307f956b4598240b1181675ee, type: 3}
    - time: 1.0166667
      value: {fileID: 0}
    attribute: m_Sprite
    path: 
    classID: 212
    script: {fileID: 0}
  m_SampleRate: 60
  m_WrapMode: 0
  m_Bounds:
    m_Center: {x: 0, y: 0, z: 0}
    m_Extent: {x: 0, y: 0, z: 0}
  m_ClipBindingConstant:
    genericBindings:
    - serializedVersion: 2
      path: 0
      attribute: 3305885265
      script: {fileID: 0}
      typeID: 61
      customType: 0
      isPPtrCurve: 0
    - serializedVersion: 2
      path: 0
      attribute: 0
      script: {fileID: 0}
      typeID: 212
      customType: 23
      isPPtrCurve: 1
    pptrCurveMapping:
    - {fileID: 21300000, guid: 21a00020982a7004e9674b02a3ad6da3, type: 3}
    - {fileID: 21300000, guid: 14ebe83070dc3d04fb3b7ca9f89019e2, type: 3}
    - {fileID: 21300000, guid: ff36ff79a4e4d5b43a168c9220833a57, type: 3}
    - {fileID: 21300000, guid: 0c3eced6c6632404cb2172049a31c9e5, type: 3}
    - {fileID: 21300000, guid: 2872c360b51f2a54d82723aaad92fbae, type: 3}
    - {fileID: 21300000, guid: cc13a40f664730f4ea1b108f0e1fab75, type: 3}
    - {fileID: 21300000, guid: b81f76f43a5398c47ac05712faaa0161, type: 3}
    - {fileID: 21300000, guid: f0f220574f2f76e418b191584ef18d96, type: 3}
    - {fileID: 21300000, guid: bc27698e8d52ae647988a48e2295540e, type: 3}
    - {fileID: 21300000, guid: 927d58306d4b54942abf68c7124023c0, type: 3}
    - {fileID: 21300000, guid: 4dd34cc4c4a803f4994629c3aa71fd15, type: 3}
    - {fileID: 21300000, guid: c1a3fa562e5a5db428e2c5f28d61eaed, type: 3}
    - {fileID: 21300000, guid: fb97256e05c0bf84dba5cc6d8ea3c460, type: 3}
    - {fileID: 21300000, guid: 470337c307f956b4598240b1181675ee, type: 3}
    - {fileID: 21300000, guid: 470337c307f956b4598240b1181675ee, type: 3}
    - {fileID: 0}
  m_AnimationClipSettings:
    serializedVersion: 2
    m_AdditiveReferencePoseClip: {fileID: 0}
    m_AdditiveReferencePoseTime: 0
    m_StartTime: 0
    m_StopTime: 1.0333333
    m_OrientationOffsetY: 0
    m_Level: 0
    m_CycleOffset: 0
    m_HasAdditiveReferencePose: 0
    m_LoopTime: 0
    m_LoopBlend: 0
    m_LoopBlendOrientation: 0
    m_LoopBlendPositionY: 0
    m_LoopBlendPositionXZ: 0
    m_KeepOriginalOrientation: 0
    m_KeepOriginalPositionY: 1
    m_KeepOriginalPositionXZ: 0
    m_HeightFromFeet: 0
    m_Mirror: 0
  m_EditorCurves:
  - curve:
      serializedVersion: 2
      m_Curve:
      - serializedVersion: 3
        time: 0
        value: 1
        inSlope: Infinity
        outSlope: Infinity
        tangentMode: 103
        weightedMode: 0
        inWeight: 0
        outWeight: 0
      - serializedVersion: 3
        time: 0.95
        value: 0
        inSlope: Infinity
        outSlope: Infinity
        tangentMode: 103
        weightedMode: 0
        inWeight: 0
        outWeight: 0
      m_PreInfinity: 2
      m_PostInfinity: 2
      m_RotationOrder: 4
    attribute: m_Enabled
    path: 
    classID: 61
    script: {fileID: 0}
  m_EulerEditorCurves: []
  m_HasGenericRootTransform: 0
  m_HasMotionFloatCurves: 0
  m_Events: []
