%YAML 1.1
%TAG !u! tag:unity3d.com,2011:
--- !u!1 &4489411365297127652
GameObject:
  m_ObjectHideFlags: 0
  m_CorrespondingSourceObject: {fileID: 0}
  m_PrefabInstance: {fileID: 0}
  m_PrefabAsset: {fileID: 0}
  serializedVersion: 6
  m_Component:
  - component: {fileID: 6346292089665410405}
  - component: {fileID: 6863899587933005667}
  m_Layer: 0
  m_Name: SoundHandler
  m_TagString: Untagged
  m_Icon: {fileID: 0}
  m_NavMeshLayer: 0
  m_StaticEditorFlags: 0
  m_IsActive: 1
--- !u!4 &6346292089665410405
Transform:
  m_ObjectHideFlags: 0
  m_CorrespondingSourceObject: {fileID: 0}
  m_PrefabInstance: {fileID: 0}
  m_PrefabAsset: {fileID: 0}
  m_GameObject: {fileID: 4489411365297127652}
  m_LocalRotation: {x: 0, y: 0, z: 0, w: 1}
  m_LocalPosition: {x: -17.07167, y: 22.86584, z: -2.2219994}
  m_LocalScale: {x: 1, y: 1, z: 1}
  m_Children: []
  m_Father: {fileID: 0}
  m_RootOrder: 0
  m_LocalEulerAnglesHint: {x: 0, y: 0, z: 0}
--- !u!114 &6863899587933005667
MonoBehaviour:
  m_ObjectHideFlags: 0
  m_CorrespondingSourceObject: {fileID: 0}
  m_PrefabInstance: {fileID: 0}
  m_PrefabAsset: {fileID: 0}
  m_GameObject: {fileID: 4489411365297127652}
  m_Enabled: 1
  m_EditorHideFlags: 0
  m_Script: {fileID: 11500000, guid: 9f1128df3f2f7404cb6b6883270c4f25, type: 3}
  m_Name: 
  m_EditorClassIdentifier: 
  BGM_Mixer: {fileID: 0}
  BGMList:
  - Name: Boss1
    Clip: {fileID: 0}
    MinMaxVolume: {x: 0, y: 0}
    FadeInSec: 0
    FadeOutSec: 0
  - Name: 
    Clip: {fileID: 0}
    MinMaxVolume: {x: 0, y: 0}
    FadeInSec: 0
    FadeOutSec: 0
  SFXList:
  - {fileID: 11400000, guid: 0c5dc29042e92e74cb2c2cfcd2608d30, type: 2}
  - {fileID: 11400000, guid: 88fcac21900df2745b5f680c24e827df, type: 2}
  - {fileID: 11400000, guid: e0a8a05eefeda5d4b802604a1be43313, type: 2}
  - {fileID: 11400000, guid: 38df462119fe56446a569695c4bf4475, type: 2}
