%YAML 1.1
%TAG !u! tag:unity3d.com,2011:
--- !u!114 &11400000
MonoBehaviour:
  m_ObjectHideFlags: 0
  m_CorrespondingSourceObject: {fileID: 0}
  m_PrefabInstance: {fileID: 0}
  m_PrefabAsset: {fileID: 0}
  m_GameObject: {fileID: 0}
  m_Enabled: 1
  m_EditorHideFlags: 0
  m_Script: {fileID: 11500000, guid: 2b31cc09a9cd7a747805b43a60ea69fd, type: 3}
  m_Name: MenuSelect
  m_EditorClassIdentifier: 
  Name: MenuSelect
  AudioClips:
  - {fileID: 8300000, guid: 5071a66d6e6226641ae538635af22635, type: 3}
  Mixer: {fileID: 0}
  MinMaxVolume: {x: 0.1, y: 0.1}
  MinMaxPitch: {x: 1, y: 1}
