%YAML 1.1
%TAG !u! tag:unity3d.com,2011:
--- !u!114 &11400000
MonoBehaviour:
  m_ObjectHideFlags: 0
  m_CorrespondingSourceObject: {fileID: 0}
  m_PrefabInstance: {fileID: 0}
  m_PrefabAsset: {fileID: 0}
  m_GameObject: {fileID: 0}
  m_Enabled: 1
  m_EditorHideFlags: 0
  m_Script: {fileID: 11500000, guid: 9a8462b3204bdff4dbb5763beb809ace, type: 3}
  m_Name: 13shotGun16
  m_EditorClassIdentifier: 
  beatFull: 16
  beatD8: 0
  isBeatFull: 0
  isBeatD8: 0
  checkBeatList:
  - full: 1
    D8: 0
  BulletStatus: {fileID: 11400000, guid: 9f6e65879cc3b4644b0b31024e0d95be, type: 2}
  _angleInterval: 22.5
  _targetAmount: 16
