%YAML 1.1
%TAG !u! tag:unity3d.com,2011:
--- !u!114 &11400000
MonoBehaviour:
  m_ObjectHideFlags: 0
  m_CorrespondingSourceObject: {fileID: 0}
  m_PrefabInstance: {fileID: 0}
  m_PrefabAsset: {fileID: 0}
  m_GameObject: {fileID: 0}
  m_Enabled: 1
  m_EditorHideFlags: 0
  m_Script: {fileID: 11500000, guid: ecb8924fe07d39c4db135645f85a4dcc, type: 3}
  m_Name: UpDownWaveAttack
  m_EditorClassIdentifier: 
  beatFull: 6
  beatD8: 0
  isBeatFull: 0
  isBeatD8: 1
  checkBeatList: []
  BulletStatus: {fileID: 11400000, guid: 437219a69fa03ef46938f11d79f9bace, type: 2}
  _targetAmount: 1
  _upDownRange: 1.5
  startDegree: 190
  endDegree: 180
  turnBeat: 8
