%YAML 1.1
%TAG !u! tag:unity3d.com,2011:
--- !u!114 &11400000
MonoBehaviour:
  m_ObjectHideFlags: 0
  m_CorrespondingSourceObject: {fileID: 0}
  m_PrefabInstance: {fileID: 0}
  m_PrefabAsset: {fileID: 0}
  m_GameObject: {fileID: 0}
  m_Enabled: 1
  m_EditorHideFlags: 0
  m_Script: {fileID: 11500000, guid: b49ed22ab8a17c944b77c258d1cafb11, type: 3}
  m_Name: VerticleLightningAttack4
  m_EditorClassIdentifier: 
  beatFull: 1
  beatD8: 0
  isBeatFull: 0
  isBeatD8: 0
  checkBeatList:
  - full: 1
    D8: 0
