%YAML 1.1
%TAG !u! tag:unity3d.com,2011:
--- !u!74 &7400000
AnimationClip:
  m_ObjectHideFlags: 0
  m_CorrespondingSourceObject: {fileID: 0}
  m_PrefabInstance: {fileID: 0}
  m_PrefabAsset: {fileID: 0}
  m_Name: Alt
  serializedVersion: 6
  m_Legacy: 0
  m_Compressed: 0
  m_UseHighQualityCurve: 1
  m_RotationCurves: []
  m_CompressedRotationCurves: []
  m_EulerCurves: []
  m_PositionCurves: []
  m_ScaleCurves: []
  m_FloatCurves: []
  m_PPtrCurves:
  - curve:
    - time: 0
      value: {fileID: 21300000, guid: 2d552ed873a7a394399440390c007883, type: 3}
    - time: 0.083333336
      value: {fileID: 21300000, guid: 1989c7a8f6a57e249b30f32524eae35a, type: 3}
    - time: 0.16666667
      value: {fileID: 21300000, guid: 15dca48847879534a9a4958e3a46ee05, type: 3}
    - time: 0.25
      value: {fileID: 21300000, guid: 46753d419772cb84786bec4095ba9dc5, type: 3}
    - time: 0.33333334
      value: {fileID: 21300000, guid: eda441d7a8b942241a5b062fae13125b, type: 3}
    - time: 0.41666666
      value: {fileID: 21300000, guid: be134d35da0b7ea4eb8fff28fb30f85d, type: 3}
    - time: 0.5
      value: {fileID: 21300000, guid: aec30c078773853439e3795ed25f11cf, type: 3}
    - time: 0.5833333
      value: {fileID: 21300000, guid: 0624b24ad6d2fce4bb6f76f1ad68ec2c, type: 3}
    - time: 0.6666667
      value: {fileID: 21300000, guid: 8d1902b560c8f3d4ba1e8d72de608042, type: 3}
    - time: 0.75
      value: {fileID: 21300000, guid: 0ae63f74579a9d34d87423d5ec2a18ee, type: 3}
    - time: 0.8333333
      value: {fileID: 21300000, guid: 643ad9c400849664a99905ecb0ed69f0, type: 3}
    - time: 0.9166667
      value: {fileID: 21300000, guid: 787efb6cdc469524c96b11db650c6360, type: 3}
    - time: 1
      value: {fileID: 21300000, guid: 1ea2c0f896b42be44b87f0643c3d829c, type: 3}
    - time: 1.0833334
      value: {fileID: 21300000, guid: 6e80dd389ee24f34dbee12f63e1e3ce5, type: 3}
    - time: 1.1666666
      value: {fileID: 21300000, guid: 8e4f75da599422c47ad2fd8d519eb680, type: 3}
    - time: 1.25
      value: {fileID: 21300000, guid: 1f9c00b0b28fb0247beb0a01f7d8ed7e, type: 3}
    - time: 1.3333334
      value: {fileID: 21300000, guid: 60e4671998ef5d14a9f1ec23ab687d03, type: 3}
    - time: 1.4166666
      value: {fileID: 21300000, guid: 7d2de2086d8eba244a1b4c6349973c58, type: 3}
    - time: 1.5
      value: {fileID: 21300000, guid: b94221cb93f7eb94d95035d9f3c6e75e, type: 3}
    - time: 1.5833334
      value: {fileID: 21300000, guid: 06e10705a64f30642bde9939fb306a72, type: 3}
    - time: 1.6666666
      value: {fileID: 21300000, guid: 0536dc5186940854091f104942d65698, type: 3}
    - time: 1.75
      value: {fileID: 21300000, guid: 85726d48741fb3e41aa0312abc98bf1b, type: 3}
    - time: 1.8333334
      value: {fileID: 21300000, guid: 7e00e12ca96b9c2468a122de13109e36, type: 3}
    - time: 1.9166666
      value: {fileID: 21300000, guid: b4ff30a991318da4598ae321ccfc2b00, type: 3}
    - time: 2
      value: {fileID: 21300000, guid: 3d14422f1dd17924aa990a34a0494198, type: 3}
    - time: 2.0833333
      value: {fileID: 21300000, guid: 05d3498abdb4b864294b7e133f78f8e2, type: 3}
    - time: 2.1666667
      value: {fileID: 21300000, guid: 91b9c8a6ede441c478c994eba4e4a5f1, type: 3}
    attribute: m_Sprite
    path: 
    classID: 212
    script: {fileID: 0}
  m_SampleRate: 12
  m_WrapMode: 0
  m_Bounds:
    m_Center: {x: 0, y: 0, z: 0}
    m_Extent: {x: 0, y: 0, z: 0}
  m_ClipBindingConstant:
    genericBindings:
    - serializedVersion: 2
      path: 0
      attribute: 0
      script: {fileID: 0}
      typeID: 212
      customType: 23
      isPPtrCurve: 1
    pptrCurveMapping:
    - {fileID: 21300000, guid: 2d552ed873a7a394399440390c007883, type: 3}
    - {fileID: 21300000, guid: 1989c7a8f6a57e249b30f32524eae35a, type: 3}
    - {fileID: 21300000, guid: 15dca48847879534a9a4958e3a46ee05, type: 3}
    - {fileID: 21300000, guid: 46753d419772cb84786bec4095ba9dc5, type: 3}
    - {fileID: 21300000, guid: eda441d7a8b942241a5b062fae13125b, type: 3}
    - {fileID: 21300000, guid: be134d35da0b7ea4eb8fff28fb30f85d, type: 3}
    - {fileID: 21300000, guid: aec30c078773853439e3795ed25f11cf, type: 3}
    - {fileID: 21300000, guid: 0624b24ad6d2fce4bb6f76f1ad68ec2c, type: 3}
    - {fileID: 21300000, guid: 8d1902b560c8f3d4ba1e8d72de608042, type: 3}
    - {fileID: 21300000, guid: 0ae63f74579a9d34d87423d5ec2a18ee, type: 3}
    - {fileID: 21300000, guid: 643ad9c400849664a99905ecb0ed69f0, type: 3}
    - {fileID: 21300000, guid: 787efb6cdc469524c96b11db650c6360, type: 3}
    - {fileID: 21300000, guid: 1ea2c0f896b42be44b87f0643c3d829c, type: 3}
    - {fileID: 21300000, guid: 6e80dd389ee24f34dbee12f63e1e3ce5, type: 3}
    - {fileID: 21300000, guid: 8e4f75da599422c47ad2fd8d519eb680, type: 3}
    - {fileID: 21300000, guid: 1f9c00b0b28fb0247beb0a01f7d8ed7e, type: 3}
    - {fileID: 21300000, guid: 60e4671998ef5d14a9f1ec23ab687d03, type: 3}
    - {fileID: 21300000, guid: 7d2de2086d8eba244a1b4c6349973c58, type: 3}
    - {fileID: 21300000, guid: b94221cb93f7eb94d95035d9f3c6e75e, type: 3}
    - {fileID: 21300000, guid: 06e10705a64f30642bde9939fb306a72, type: 3}
    - {fileID: 21300000, guid: 0536dc5186940854091f104942d65698, type: 3}
    - {fileID: 21300000, guid: 85726d48741fb3e41aa0312abc98bf1b, type: 3}
    - {fileID: 21300000, guid: 7e00e12ca96b9c2468a122de13109e36, type: 3}
    - {fileID: 21300000, guid: b4ff30a991318da4598ae321ccfc2b00, type: 3}
    - {fileID: 21300000, guid: 3d14422f1dd17924aa990a34a0494198, type: 3}
    - {fileID: 21300000, guid: 05d3498abdb4b864294b7e133f78f8e2, type: 3}
    - {fileID: 21300000, guid: 91b9c8a6ede441c478c994eba4e4a5f1, type: 3}
  m_AnimationClipSettings:
    serializedVersion: 2
    m_AdditiveReferencePoseClip: {fileID: 0}
    m_AdditiveReferencePoseTime: 0
    m_StartTime: 0
    m_StopTime: 2.25
    m_OrientationOffsetY: 0
    m_Level: 0
    m_CycleOffset: 0
    m_HasAdditiveReferencePose: 0
    m_LoopTime: 0
    m_LoopBlend: 0
    m_LoopBlendOrientation: 0
    m_LoopBlendPositionY: 0
    m_LoopBlendPositionXZ: 0
    m_KeepOriginalOrientation: 0
    m_KeepOriginalPositionY: 1
    m_KeepOriginalPositionXZ: 0
    m_HeightFromFeet: 0
    m_Mirror: 0
  m_EditorCurves: []
  m_EulerEditorCurves: []
  m_HasGenericRootTransform: 0
  m_HasMotionFloatCurves: 0
  m_Events: []
