%YAML 1.1
%TAG !u! tag:unity3d.com,2011:
--- !u!74 &7400000
AnimationClip:
  m_ObjectHideFlags: 0
  m_CorrespondingSourceObject: {fileID: 0}
  m_PrefabInstance: {fileID: 0}
  m_PrefabAsset: {fileID: 0}
  m_Name: Punch
  serializedVersion: 6
  m_Legacy: 0
  m_Compressed: 0
  m_UseHighQualityCurve: 1
  m_RotationCurves: []
  m_CompressedRotationCurves: []
  m_EulerCurves: []
  m_PositionCurves: []
  m_ScaleCurves: []
  m_FloatCurves: []
  m_PPtrCurves:
  - curve:
    - time: 0
      value: {fileID: 21300000, guid: 534353f46297c474ebf26b2a31aa4bbc, type: 3}
    - time: 0.05
      value: {fileID: 21300000, guid: b9ede61a5f0e7ce4abea240e45765676, type: 3}
    - time: 0.11666667
      value: {fileID: 21300000, guid: 87b4c8cb109f7914592bff7e574746d7, type: 3}
    - time: 0.16666667
      value: {fileID: 21300000, guid: a7e15c2004d5c6845893a214a7cc0ee0, type: 3}
    - time: 0.23333333
      value: {fileID: 21300000, guid: 83a8771c4bb0960429554beec38430ef, type: 3}
    - time: 0.28333333
      value: {fileID: 21300000, guid: 21fd2a1143a581c4682fc072c0c9dc33, type: 3}
    - time: 0.35
      value: {fileID: 21300000, guid: efb3ef2c79caa824db01938b16811323, type: 3}
    - time: 0.4
      value: {fileID: 21300000, guid: 81365bf12d5896447a5a39ac3088c1df, type: 3}
    - time: 0.45
      value: {fileID: 21300000, guid: 5f78bd79893542a4383ac4f50ff8ee52, type: 3}
    - time: 0.51666665
      value: {fileID: 21300000, guid: 995fd26bc0b295b4c8c874d503440a93, type: 3}
    - time: 0.56666666
      value: {fileID: 21300000, guid: eb33f4f8f93964346bf341cc11d455d9, type: 3}
    - time: 0.6333333
      value: {fileID: 21300000, guid: 1a379f6b3e93c3747b375a3be7ae0625, type: 3}
    - time: 0.68333334
      value: {fileID: 21300000, guid: f38a977c030f0d84983955259f72bd4a, type: 3}
    - time: 0.75
      value: {fileID: 21300000, guid: bcb0d9ef3d9c8604c9901598880d735b, type: 3}
    - time: 0.8
      value: {fileID: 21300000, guid: e23382bdde10ec6448737d9e4e0ce2ed, type: 3}
    - time: 2
      value: {fileID: 21300000, guid: e23382bdde10ec6448737d9e4e0ce2ed, type: 3}
    attribute: m_Sprite
    path: 
    classID: 212
    script: {fileID: 0}
  m_SampleRate: 60
  m_WrapMode: 0
  m_Bounds:
    m_Center: {x: 0, y: 0, z: 0}
    m_Extent: {x: 0, y: 0, z: 0}
  m_ClipBindingConstant:
    genericBindings:
    - serializedVersion: 2
      path: 0
      attribute: 0
      script: {fileID: 0}
      typeID: 212
      customType: 23
      isPPtrCurve: 1
    pptrCurveMapping:
    - {fileID: 21300000, guid: 534353f46297c474ebf26b2a31aa4bbc, type: 3}
    - {fileID: 21300000, guid: b9ede61a5f0e7ce4abea240e45765676, type: 3}
    - {fileID: 21300000, guid: 87b4c8cb109f7914592bff7e574746d7, type: 3}
    - {fileID: 21300000, guid: a7e15c2004d5c6845893a214a7cc0ee0, type: 3}
    - {fileID: 21300000, guid: 83a8771c4bb0960429554beec38430ef, type: 3}
    - {fileID: 21300000, guid: 21fd2a1143a581c4682fc072c0c9dc33, type: 3}
    - {fileID: 21300000, guid: efb3ef2c79caa824db01938b16811323, type: 3}
    - {fileID: 21300000, guid: 81365bf12d5896447a5a39ac3088c1df, type: 3}
    - {fileID: 21300000, guid: 5f78bd79893542a4383ac4f50ff8ee52, type: 3}
    - {fileID: 21300000, guid: 995fd26bc0b295b4c8c874d503440a93, type: 3}
    - {fileID: 21300000, guid: eb33f4f8f93964346bf341cc11d455d9, type: 3}
    - {fileID: 21300000, guid: 1a379f6b3e93c3747b375a3be7ae0625, type: 3}
    - {fileID: 21300000, guid: f38a977c030f0d84983955259f72bd4a, type: 3}
    - {fileID: 21300000, guid: bcb0d9ef3d9c8604c9901598880d735b, type: 3}
    - {fileID: 21300000, guid: e23382bdde10ec6448737d9e4e0ce2ed, type: 3}
    - {fileID: 21300000, guid: e23382bdde10ec6448737d9e4e0ce2ed, type: 3}
  m_AnimationClipSettings:
    serializedVersion: 2
    m_AdditiveReferencePoseClip: {fileID: 0}
    m_AdditiveReferencePoseTime: 0
    m_StartTime: 0
    m_StopTime: 2.0166667
    m_OrientationOffsetY: 0
    m_Level: 0
    m_CycleOffset: 0
    m_HasAdditiveReferencePose: 0
    m_LoopTime: 0
    m_LoopBlend: 0
    m_LoopBlendOrientation: 0
    m_LoopBlendPositionY: 0
    m_LoopBlendPositionXZ: 0
    m_KeepOriginalOrientation: 0
    m_KeepOriginalPositionY: 1
    m_KeepOriginalPositionXZ: 0
    m_HeightFromFeet: 0
    m_Mirror: 0
  m_EditorCurves: []
  m_EulerEditorCurves: []
  m_HasGenericRootTransform: 0
  m_HasMotionFloatCurves: 0
  m_Events: []
