%YAML 1.1
%TAG !u! tag:unity3d.com,2011:
--- !u!114 &11400000
MonoBehaviour:
  m_ObjectHideFlags: 0
  m_CorrespondingSourceObject: {fileID: 0}
  m_PrefabInstance: {fileID: 0}
  m_PrefabAsset: {fileID: 0}
  m_GameObject: {fileID: 0}
  m_Enabled: 1
  m_EditorHideFlags: 0
  m_Script: {fileID: 11500000, guid: 01368d469b41df24daa0dde643ca69de, type: 3}
  m_Name: Level2
  m_EditorClassIdentifier: 
  Name: Level2
  LevelDescription: 
  GoodsOutLine: {fileID: 21300000, guid: b43949535c7310e4f9b2b4522eb8f956, type: 3}
  BossOutLine: {fileID: 21300064, guid: 8cdd847ab4f914d4cb3d23e9eb98958d, type: 3}
  Reward: 165p
  LevelToLoad: Level2
