%YAML 1.1
%TAG !u! tag:unity3d.com,2011:
--- !u!50 &1340028219
Rigidbody2D:
  serializedVersion: 4
  m_ObjectHideFlags: 0
  m_CorrespondingSourceObject: {fileID: 0}
  m_PrefabInstance: {fileID: 0}
  m_PrefabAsset: {fileID: 0}
  m_GameObject: {fileID: 5497464591566552097}
  m_BodyType: 0
  m_Simulated: 1
  m_UseFullKinematicContacts: 0
  m_UseAutoMass: 0
  m_Mass: 100
  m_LinearDrag: 3.5
  m_AngularDrag: 5
  m_GravityScale: 10
  m_Material: {fileID: 0}
  m_Interpolate: 0
  m_SleepingMode: 1
  m_CollisionDetection: 0
  m_Constraints: 0
--- !u!1001 &3136499065320016380
PrefabInstance:
  m_ObjectHideFlags: 0
  serializedVersion: 2
  m_Modification:
    m_TransformParent: {fileID: 0}
    m_Modifications:
    - target: {fileID: 5656503969060520805, guid: 6ae71ee1f83b6bc428db39500b845163,
        type: 3}
      propertyPath: m_LocalPosition.x
      value: 20.944798
      objectReference: {fileID: 0}
    - target: {fileID: 5656503969060520805, guid: 6ae71ee1f83b6bc428db39500b845163,
        type: 3}
      propertyPath: m_LocalPosition.y
      value: -6.2856784
      objectReference: {fileID: 0}
    - target: {fileID: 5656503969060520805, guid: 6ae71ee1f83b6bc428db39500b845163,
        type: 3}
      propertyPath: m_LocalPosition.z
      value: 0
      objectReference: {fileID: 0}
    - target: {fileID: 5656503969060520805, guid: 6ae71ee1f83b6bc428db39500b845163,
        type: 3}
      propertyPath: m_LocalRotation.x
      value: -0
      objectReference: {fileID: 0}
    - target: {fileID: 5656503969060520805, guid: 6ae71ee1f83b6bc428db39500b845163,
        type: 3}
      propertyPath: m_LocalRotation.y
      value: -0
      objectReference: {fileID: 0}
    - target: {fileID: 5656503969060520805, guid: 6ae71ee1f83b6bc428db39500b845163,
        type: 3}
      propertyPath: m_LocalRotation.z
      value: -0
      objectReference: {fileID: 0}
    - target: {fileID: 5656503969060520805, guid: 6ae71ee1f83b6bc428db39500b845163,
        type: 3}
      propertyPath: m_LocalRotation.w
      value: 1
      objectReference: {fileID: 0}
    - target: {fileID: 5656503969060520805, guid: 6ae71ee1f83b6bc428db39500b845163,
        type: 3}
      propertyPath: m_RootOrder
      value: 0
      objectReference: {fileID: 0}
    - target: {fileID: 5656503969060520805, guid: 6ae71ee1f83b6bc428db39500b845163,
        type: 3}
      propertyPath: m_LocalEulerAnglesHint.x
      value: 0
      objectReference: {fileID: 0}
    - target: {fileID: 5656503969060520805, guid: 6ae71ee1f83b6bc428db39500b845163,
        type: 3}
      propertyPath: m_LocalEulerAnglesHint.y
      value: 0
      objectReference: {fileID: 0}
    - target: {fileID: 5656503969060520805, guid: 6ae71ee1f83b6bc428db39500b845163,
        type: 3}
      propertyPath: m_LocalEulerAnglesHint.z
      value: 0
      objectReference: {fileID: 0}
    - target: {fileID: 5656503969060520805, guid: 6ae71ee1f83b6bc428db39500b845163,
        type: 3}
      propertyPath: m_LocalScale.x
      value: 1.3614
      objectReference: {fileID: 0}
    - target: {fileID: 5656503969060520805, guid: 6ae71ee1f83b6bc428db39500b845163,
        type: 3}
      propertyPath: m_LocalScale.y
      value: 1.3614
      objectReference: {fileID: 0}
    - target: {fileID: 5656503969060520805, guid: 6ae71ee1f83b6bc428db39500b845163,
        type: 3}
      propertyPath: m_LocalScale.z
      value: 1.3614
      objectReference: {fileID: 0}
    - target: {fileID: 7479915633340200413, guid: 6ae71ee1f83b6bc428db39500b845163,
        type: 3}
      propertyPath: m_Name
      value: ROCK1 Variant
      objectReference: {fileID: 0}
    - target: {fileID: 7479915633340200413, guid: 6ae71ee1f83b6bc428db39500b845163,
        type: 3}
      propertyPath: m_Layer
      value: 16
      objectReference: {fileID: 0}
    - target: {fileID: 8847403308708926518, guid: 6ae71ee1f83b6bc428db39500b845163,
        type: 3}
      propertyPath: m_SortingOrder
      value: 80
      objectReference: {fileID: 0}
    m_RemovedComponents: []
  m_SourcePrefab: {fileID: 100100000, guid: 6ae71ee1f83b6bc428db39500b845163, type: 3}
--- !u!1 &5497464591566552097 stripped
GameObject:
  m_CorrespondingSourceObject: {fileID: 7479915633340200413, guid: 6ae71ee1f83b6bc428db39500b845163,
    type: 3}
  m_PrefabInstance: {fileID: 3136499065320016380}
  m_PrefabAsset: {fileID: 0}
